1 10 20
100 200 125
201 210 89
900 1000 174
361954 578805 470
144888 140086 375
514397 969399 525
887873 402213 525
152004 176414 383
401831 860762 525
580629 869474 525
138673 508844 449
27182 263243 443
81714 212216 383
562775 388603 470
112949 147503 375
800247 150903 509
300103 584619 470
844720 70148 525
573320 123035 470
467281 231366 449
264769 373434 441
689729 570712 509
747218 312573 509
215052 203677 373
607834 733102 509
516860 252876 470
955285 457773 525
156178 353262 443
398701 40258 443
973859 184 525
882213 556709 525
263822 460984 449
443432 34841 449
985753 205984 525
552675 141839 470
99728 205054 383
143857 640861 509
343348 64123 443
506757 419778 444
726180 433215 509
691523 460832 509
328737 849815 525
523762 794257 509
496669 202864 449
90641 236097 443
54568 245987 443
177945 625599 470
161567 504864 449
356271 738702 509
692097 102762 509
985410 173875 525
687340 501614 509
916229 545151 525
884460 478911 525
25374 325607 443
74420 958837 525
528610 191763 470
714141 365666 509
178251 569695 470
81020 997922 525
384562 915661 525
912509 825152 525
849448 464869 525
877166 78981 525
773675 320159 509
714692 909240 525
364156 129884 443
834039 523815 509
766556 320827 509
27889 249609 443
373499 584136 470
988532 308146 525
199225 252485 443
283351 133318 443
891764 915958 476
405269 650123 509
744676 205586 509
611810 842075 525
604243 623239 447
64253 541749 470
835957 808433 450
658466 854647 525
455735 811599 509
902331 981387 507
347413 56404 443
890827 438264 525
150766 570660 470
182333 607722 470
352598 889112 525
895195 51861 525
355999 41158 443
859336 765537 525
105990 605000 470
391149 126964 443
679057 561834 509
365763 42925 443
504654 86729 449
631908 54971 509
621706 454547 470
302427 601883 470
226671 241425 443
641057 771427 504
362068 357755 410
417352 772595 509
360878 654715 509
258254 355878 441
310361 562898 470
231275 996602 525
932721 630860 525
665087 265720 509
361218 88624 443
727348 459424 509
628063 731306 504
915163 188176 525
727192 601210 509
331296 127799 443
863192 482904 525
234825 311144 407
574271 386255 470
49852 768396 509
774989 244142 509
165821 816282 509
647388 754827 504
294204 788439 509
192641 41541 383
482816 88551 449
179472 55056 383
467155 101951 449
426971 235049 449
843202 662269 525
100985 162331 383
172668 221158 386
894610 529634 525
547901 232701 470
117053 79160 354
874130 477389 525
291866 243232 407
844980 861370 419
847235 781583 525
868945 472933 525
609216 996448 525
805933 601551 509
290072 393046 441
337126 167971 443
588728 498998 470
728936 640942 504
316193 939644 525
934030 624453 525
969272 470129 525
55026 116642 354
330801 428574 449
863254 897975 445
203185 865334 525
376805 196518 443
185634 563493 470
312649 268725 407
533417 60243 470
552559 667697 509
60819 472540 449
141136 388388 443
301353 632845 509
648088 787221 504
285641 427922 449
215074 999705 525
692044 20414 509
339955 203790 443
545192 696552 509
968231 879647 507
654614 177784 509
182097 348328 443
986029 746695 525
862106 989200 507
79029 845294 525
74613 613638 470
939986 225456 525
404647 58970 443
413141 147307 449
205587 524049 470
516901 391902 470
156056 862927 525
36057 367307 443
391696 976385 525
261556 776892 509
615096 680056 509
748344 620414 509
601181 22176 470
940117 349820 525
133715 371495 443
823509 14566 509
965432 981797 458
164298 988970 525
898767 716907 525
951167 633577 525
477156 740934 509
210587 812092 509
615919 135389 470
248626 939047 525
571754 448765 470
323841 450148 449
46874 954985 525
370791 552579 470
536355 485415 470
243158 537507 470
656283 2515 509
588621 888411 525
803413 839571 525
21085 19785 274
116186 687841 509
22974 894390 525
969419 667106 525
619249 971724 525
216417 333105 443
660436 819916 504
901905 909459 445
817414 897907 525
718137 538990 509
364902 154860 443
619963 377884 470
233532 452333 449
202925 553865 470
951821 772239 525
20947 535670 470
232804 910099 525
860784 607266 525
330852 845724 525
564384 93767 470
651485 40790 509
367762 311809 441
551567 22187 470
126847 19482 354
553452 94436 470
876141 510946 525
102822 494596 449
46322 485434 449
880018 810203 525
919252 871696 476
734876 668740 504
163668 915243 525
827535 369576 509
625251 639879 509
15114 192010 383
93463 315684 443
625381 368059 470
593406 685818 509
56096 695683 509
625916 679937 509
66054 480571 449
942688 931893 507
168247 44383 383
382240 994943 525
100795 78480 341
804860 433897 509
580775 493006 470
